<?xml version="1.0" encoding="utf-8"?>
<!-- Generator: Adobe Illustrator 18.1.1, SVG Export Plug-In . SVG Version: 6.00 Build 0)  -->
<svg version="1.1" id="Layer_1" xmlns="http://www.w3.org/2000/svg" xmlns:xlink="http://www.w3.org/1999/xlink" x="0px" y="0px"
	 viewBox="0 0 100.1 115.8" enable-background="new 0 0 100.1 115.8" xml:space="preserve">
<g>
	<g>
		<defs>
			<path id="SVGID_1_" d="M43.7,5.5c3.5-2.1,9.3-2.1,12.8,0l35.3,20.7c3.5,2.1,6.4,7.1,6.4,11.2v41.6c0,4.1-2.9,9.2-6.4,11.2
				L56.4,111c-3.5,2.1-9.3,2.1-12.8,0L8.4,90.3C4.9,88.3,2,83.2,2,79.1V37.5c0-4.1,2.9-9.2,6.4-11.2L43.7,5.5L43.7,5.5L43.7,5.5z
				 M42.6,3.8L7.4,24.5C3.3,27,0,32.7,0,37.5v41.6C0,83.9,3.3,89.6,7.4,92l35.3,20.7c4.1,2.4,10.7,2.4,14.8,0L92.7,92
				c4.1-2.4,7.4-8.2,7.4-12.9V37.5c0-4.8-3.3-10.5-7.4-12.9L57.5,3.8C53.3,1.4,46.8,1.4,42.6,3.8L42.6,3.8L42.6,3.8z M42.6,3.8"/>
		</defs>
		<clipPath id="SVGID_2_">
			<use xlink:href="#SVGID_1_"  overflow="visible"/>
		</clipPath>
		<rect x="-10" y="-8" clip-path="url(#SVGID_2_)" fill="#AEAEAE" width="120.1" height="132.6"/>
	</g>
	<g>
		<defs>
			<rect id="SVGID_3_" x="-1.9" y="1.8" width="102" height="114"/>
		</defs>
		<defs>
			<path id="SVGID_4_" d="M43.1,13.2c3.8-2.2,10-2.3,13.8,0l28,16.5c3.8,2.2,6.9,7.6,6.9,12.1v33.1c0,4.4-3.1,9.8-6.9,12.1l-28,16.5
				c-3.8,2.2-10,2.3-13.8,0l-28-16.5c-3.8-2.2-6.9-7.6-6.9-12.1V41.7c0-4.4,3.1-9.8,6.9-12.1L43.1,13.2L43.1,13.2z M43.1,13.2"/>
		</defs>
		<defs>
			<path id="SVGID_5_" d="M-1551.9-1594.2h2880v2048h-2880V-1594.2z M-1551.9-1594.2"/>
		</defs>
		<clipPath id="SVGID_6_">
			<use xlink:href="#SVGID_3_"  overflow="visible"/>
		</clipPath>
		<clipPath id="SVGID_7_" clip-path="url(#SVGID_6_)">
			<use xlink:href="#SVGID_4_"  overflow="visible"/>
		</clipPath>
		<clipPath id="SVGID_8_" clip-path="url(#SVGID_7_)">
			<use xlink:href="#SVGID_5_"  overflow="visible"/>
		</clipPath>
		<rect x="-1.8" y="1.5" clip-path="url(#SVGID_8_)" fill="#882475" width="103.6" height="113.6"/>
	</g>
</g>
</svg>
